<?xml version="1.0" encoding="iso-8859-1"?>
<!-- Generator: Adobe Illustrator 19.0.0, SVG Export Plug-In . SVG Version: 6.00 Build 0)  -->
<svg version="1.1" id="Capa_1" xmlns="http://www.w3.org/2000/svg" xmlns:xlink="http://www.w3.org/1999/xlink" x="0px" y="0px"
	 viewBox="0 0 512 512" style="enable-background:new 0 0 512 512;" xml:space="preserve">
<g>
	<g>
		<g>
			<polygon points="368,32 368,64 432,64 432,480 80,480 80,64 144,64 144,32 48,32 48,512 464,512 464,32 			"/>
			<path d="M336,0H176v96h160V0z M304,64h-96V32h96V64z"/>
			<polygon points="144,96 112,96 112,448 400,448 400,96 368,96 368,416 144,416 			"/>
			<polygon points="240,256 272,256 272,160 336,160 336,128 176,128 176,160 240,160 			"/>
			<rect x="240" y="288" width="32" height="32"/>
			<rect x="240" y="352" width="32" height="32"/>
		</g>
	</g>
</g>
<g>
</g>
<g>
</g>
<g>
</g>
<g>
</g>
<g>
</g>
<g>
</g>
<g>
</g>
<g>
</g>
<g>
</g>
<g>
</g>
<g>
</g>
<g>
</g>
<g>
</g>
<g>
</g>
<g>
</g>
</svg>
