<?xml version="1.0" standalone="no"?>
<!DOCTYPE svg PUBLIC "-//W3C//DTD SVG 1.1//EN" "http://www.w3.org/Graphics/SVG/1.1/DTD/svg11.dtd" >
<!--
2017-10-5: Created with FontForge (http://fontforge.org)
-->
<svg xmlns="http://www.w3.org/2000/svg" xmlns:xlink="http://www.w3.org/1999/xlink" version="1.1">
<metadata>
Created by FontForge 20160405 at Thu Oct  5 10:18:35 2017
 By Apache
Copyright (c) 2017, Apache
</metadata>
<defs>
<font id="Flaticon" horiz-adv-x="512" >
  <font-face 
    font-family="Flaticon"
    font-weight="400"
    font-stretch="normal"
    units-per-em="512"
    panose-1="2 0 5 3 0 0 0 0 0 0"
    ascent="448"
    descent="-64"
    bbox="-0.000244141 -64 512 448"
    underline-thickness="25.6"
    underline-position="-51.2"
    unicode-range="U+0020-F107"
  />
    <missing-glyph />
    <glyph glyph-name="space" unicode=" " horiz-adv-x="200" 
 />
    <glyph glyph-name="uniF103" unicode="&#xf103;" 
d="M0 64l256 256l256 -256h-512z" />
    <glyph glyph-name="uniF107" unicode="&#xf107;" 
d="M0 319.996h511.999l-256.004 -255.992z" />
    <glyph glyph-name="uniF102" unicode="&#xf102;" 
d="M225.358 26.5889v0v134.718h-134.822v-39.5986c0 -8.1709 -9.74219 -12.2568 -15.5039 -6.59961l-72.2822 70.292c-3.66699 3.56152 -3.66699 9.5332 0 13.0947l72.2822 70.292c5.76172 5.55176 15.5039 1.4668 15.5039 -6.59961v-39.5986h134.718v134.822h-39.5986
c-8.1709 0 -12.2559 9.74219 -6.59961 15.5039l70.292 72.2822c3.56152 3.66699 9.5332 3.66699 13.0947 0l70.292 -72.2822c5.55273 -5.76172 1.4668 -15.5039 -6.59961 -15.5039h-39.5977v-134.718h134.927v39.5986c0 8.1709 9.74219 12.2568 15.5039 6.59961
l72.2822 -70.292c3.66699 -3.56152 3.66699 -9.5332 0 -13.0947l-72.2822 -70.292c-5.76172 -5.55176 -15.5039 -1.4668 -15.5039 6.59961v39.5986h-134.822v-134.822h39.5977c8.1709 0 12.2568 -9.74219 6.59961 -15.5039l-70.292 -72.2822
c-3.56152 -3.66699 -9.53223 -3.66699 -13.0938 0l-70.292 72.2822c-5.55273 5.76172 -1.4668 15.5039 6.59961 15.5039h39.5977z" />
    <glyph glyph-name="uniF105" unicode="&#xf105;" 
d="M512 396.8l-204.8 -204.8l204.8 -204.8l-51.2002 -51.2002l-204.8 204.8l-204.8 -204.8l-51.2002 51.2002l204.8 204.8l-204.8 204.8l51.2002 51.2002l204.8 -204.8l204.8 204.8z" />
    <glyph glyph-name="uniF100" unicode="&#xf100;" 
d="M128.417 448l255.166 -256l-255.166 -256v512z" />
    <glyph glyph-name="uniF101" unicode="&#xf101;" 
d="M128.417 192l255.166 256v-512z" />
    <glyph glyph-name="uniF106" unicode="&#xf106;" 
d="M448 270.86v-270.86c0 -35.3438 -28.6562 -64 -64 -64h-320c-35.3438 0 -64 28.6562 -64 64v320c0 35.3438 28.6562 64 64 64h270.844l-63.9688 -64h-206.875v-320h320v206.844zM398.875 402.75l67.875 -67.8906l-22.625 -22.625l-67.875 67.8906zM444.125 448
l67.875 -67.875l-22.625 -22.6406l-67.875 67.8906zM150 153.812l203.625 203.674l67.875 -67.8916l-203.625 -203.657zM128 64v64l64 -64h-64z" />
    <glyph glyph-name="uniF104" unicode="&#xf104;" 
d="M512 155.429h-219.429v-219.429h-73.1426v219.429h-219.429v73.1426h219.429v219.429h73.1426v-219.429h219.429v-73.1426z" />
  </font>
</defs></svg>
